{
  "project_info": {
    "project_number": "156282175711",
    "project_id": "projectsaladio",
    "storage_bucket": "projectsaladio.appspot.com"
  },
  "client": [
    {
      "client_info": {
        "mobilesdk_app_id": "1:156282175711:android:cbe7da323f62e6b979296a",
        "android_client_info": {
          "package_name": "com.example.projectsaladio"
        }
      },
      "oauth_client": [
        {
          "client_id": "156282175711-evb9q46iof0is6m4iejjlugpt83r0o4h.apps.googleusercontent.com",
          "client_type": 1,
          "android_info": {
            "package_name": "com.example.projectsaladio",
            "certificate_hash": "09a82ecc65d993bc8b727221facb10acd1978c2a"
          }
        },
        {
          "client_id": "156282175711-5g4nprltb0gh37j0prjd4keb8jrje6jh.apps.googleusercontent.com",
          "client_type": 3
        }
      ],
      "api_key": [
        {
          "current_key": "AIzaSyD1lIBxfBVx_JmlblK2gYqy-O9h3xuZPsk"
        }
      ],
      "services": {
        "appinvite_service": {
          "other_platform_oauth_client": [
            {
              "client_id": "156282175711-5g4nprltb0gh37j0prjd4keb8jrje6jh.apps.googleusercontent.com",
              "client_type": 3
            },
            {
              "client_id": "156282175711-b3ojk1etq0t4lge3qp0ofrqgqtharsob.apps.googleusercontent.com",
              "client_type": 2,
              "ios_info": {
                "bundle_id": "com.example.projectsaladio"
              }
            }
          ]
        }
      }
    }
  ],
  "configuration_version": "1"
}